# `bps()` default

    Code
      preproc_data(data, bps)
    Output
      # A tibble: 1,000 x 7
            id    pc p_sim_foil p_sim_lure p_sim_target bps_score is_normal
         <int> <dbl>      <dbl>      <dbl>        <dbl>     <dbl> <lgl>    
       1     1 0.35         0.4       0.25         0.35     -0.15 FALSE    
       2     2 0.3          0.4       0.25         0.35     -0.15 FALSE    
       3     3 0.283        0.4       0.25         0.35     -0.15 FALSE    
       4     4 0.283        0.4       0.25         0.35     -0.15 FALSE    
       5     5 0.3          0.4       0.25         0.35     -0.15 FALSE    
       6     6 0.333        0.4       0.25         0.35     -0.15 FALSE    
       7     7 0.317        0.4       0.25         0.35     -0.15 FALSE    
       8     8 0.317        0.4       0.25         0.35     -0.15 FALSE    
       9     9 0.333        0.4       0.25         0.35     -0.15 FALSE    
      10    10 0.317        0.4       0.25         0.35     -0.15 FALSE    
      # ... with 990 more rows
